{
  "project_info": {
    "project_number": "86868653924",
    "project_id": "sms-sender-97593",
    "storage_bucket": "sms-sender-97593.appspot.com"
  },
  "client": [
    {
      "client_info": {
        "mobilesdk_app_id": "1:86868653924:android:d1f2f1cbc49e2dd0e42c71",
        "android_client_info": {
          "package_name": "com.redmango.online.sms_sender"
        }
      },
      "oauth_client": [
        {
          "client_id": "86868653924-uq9vu65subat0je8bo2momepolsim763.apps.googleusercontent.com",
          "client_type": 3
        }
      ],
      "api_key": [
        {
          "current_key": "AIzaSyB3c4CVgvMFRM9CoLteNTQrHeMGCW7Nbmo"
        }
      ],
      "services": {
        "appinvite_service": {
          "other_platform_oauth_client": [
            {
              "client_id": "86868653924-uq9vu65subat0je8bo2momepolsim763.apps.googleusercontent.com",
              "client_type": 3
            }
          ]
        }
      }
    }
  ],
  "configuration_version": "1"
}